module go-tracing

go 1.20

require (
	github.com/go-chi/chi v1.5.4
	go.opentelemetry.io/contrib/instrumentation/net/http/otelhttp v0.42.0
	go.opentelemetry.io/otel v1.16.0
	go.opentelemetry.io/otel/exporters/otlp/otlpmetric/otlpmetricgrpc v0.39.0
	go.opentelemetry.io/otel/exporters/otlp/otlptrace v1.16.0
	go.opentelemetry.io/otel/exporters/otlp/otlptrace/otlptracegrpc v1.16.0
	go.opentelemetry.io/otel/metric v1.16.0 // indirect
	go.opentelemetry.io/otel/sdk v1.16.0
	//go.opentelemetry.io/otel/sdk/metric v0.39.0
	//go.opentelemetry.io/otel/trace v1.13.0
	google.golang.org/grpc v1.55.0 // indirect
)

require (
	github.com/sirupsen/logrus v1.9.3
	go.opentelemetry.io/otel/sdk/metric v0.39.0
	go.opentelemetry.io/otel/trace v1.16.0
)

require (
	github.com/cenkalti/backoff/v4 v4.2.1 // indirect
	github.com/felixge/httpsnoop v1.0.3 // indirect
	github.com/go-logr/logr v1.2.4 // indirect
	github.com/go-logr/stdr v1.2.2 // indirect
	github.com/golang/protobuf v1.5.3 // indirect
	github.com/grpc-ecosystem/grpc-gateway/v2 v2.7.0 // indirect
	go.opentelemetry.io/otel/exporters/otlp/internal/retry v1.16.0 // indirect
	go.opentelemetry.io/otel/exporters/otlp/otlpmetric v0.39.0 // indirect
	go.opentelemetry.io/proto/otlp v0.19.0 // indirect
	golang.org/x/net v0.8.0 // indirect
	golang.org/x/sys v0.8.0 // indirect
	golang.org/x/text v0.8.0 // indirect
	google.golang.org/genproto v0.0.0-20230306155012-7f2fa6fef1f4 // indirect
	google.golang.org/protobuf v1.30.0 // indirect
)
